%YAML 1.1
%TAG !u! tag:unity3d.com,2011:
--- !u!114 &11400000
MonoBehaviour:
  m_ObjectHideFlags: 0
  m_CorrespondingSourceObject: {fileID: 0}
  m_PrefabInstance: {fileID: 0}
  m_PrefabAsset: {fileID: 0}
  m_GameObject: {fileID: 0}
  m_Enabled: 1
  m_EditorHideFlags: 0
  m_Script: {fileID: 11500000, guid: 81d1efcf48d4aa14fba2fc03fc582689, type: 3}
  m_Name: Proto Roster
  m_EditorClassIdentifier: 
  department: College Of Engineering
  roster:
  - {fileID: 11400000, guid: 2fcfe684328575746a358054eb4ea34d, type: 2}
  - {fileID: 11400000, guid: af98bec301ad7a9469569a5a50946e8c, type: 2}
