%YAML 1.1
%TAG !u! tag:unity3d.com,2011:
--- !u!114 &11400000
MonoBehaviour:
  m_ObjectHideFlags: 0
  m_CorrespondingSourceObject: {fileID: 0}
  m_PrefabInstance: {fileID: 0}
  m_PrefabAsset: {fileID: 0}
  m_GameObject: {fileID: 0}
  m_Enabled: 1
  m_EditorHideFlags: 0
  m_Script: {fileID: 11500000, guid: 9d11a7c09f7f5b84b8d23dd6aade4383, type: 3}
  m_Name: Proto Student 2
  m_EditorClassIdentifier: 
  studentFirstName: Proto
  studentLastName: Student 2
  studentID: 8951563
  degreeAwarded: Bachelors in Science in Electrical Engineering
  prefab: {fileID: 33006768966097956, guid: cd173ab68058e1e40b0dcbac3f9cd300, type: 3}
  studentImage: {fileID: 21300000, guid: 27ed6547804a685489c09c91b0bb2255, type: 3}
